<svg width="2986.52" height="776.27" xmlns="http://www.w3.org/2000/svg">
 <defs>
  <style>.cls-1{fill:#23297c;}.cls-2{fill:#008bcc;}</style>
 </defs>
 <g>
  <title>background</title>
  <rect fill="none" id="canvas_background" height="402" width="582" y="-1" x="-1"/>
 </g>
 <g>
  <title>Layer 1</title>
  <text transform="matrix(1.7421221733093262,0,0,1.855080008506775,-387.38777446746826,-115.46252239868045) " font-weight="bold" xml:space="preserve" text-anchor="start" font-family="'Courier New', Courier, monospace" font-size="250" id="svg_14" y="343.041075" x="522.002132" stroke-width="0" fill="#007fff">ThaiChain</text>
 </g>
</svg>